module gitlab.com/cmdjulian/gitlab-sync

go 1.18

require github.com/spf13/cobra v1.4.0

require (
	github.com/go-git/go-git/v5 v5.4.2
	github.com/itchyny/gojq v0.12.8
	github.com/jedib0t/go-pretty/v6 v6.3.2
)

require (
	github.com/Microsoft/go-winio v0.4.16 // indirect
	github.com/ProtonMail/go-crypto v0.0.0-20210428141323-04723f9f07d7 // indirect
	github.com/acomagu/bufpipe v1.0.3 // indirect
	github.com/emirpasic/gods v1.12.0 // indirect
	github.com/go-git/gcfg v1.5.0 // indirect
	github.com/go-git/go-billy/v5 v5.3.1 // indirect
	github.com/imdario/mergo v0.3.12 // indirect
	github.com/inconshreveable/mousetrap v1.0.0 // indirect
	github.com/itchyny/timefmt-go v0.1.3 // indirect
	github.com/jbenet/go-context v0.0.0-20150711004518-d14ea06fba99 // indirect
	github.com/kevinburke/ssh_config v0.0.0-20201106050909-4977a11b4351 // indirect
	github.com/mattn/go-runewidth v0.0.13 // indirect
	github.com/mitchellh/go-homedir v1.1.0 // indirect
	github.com/rivo/uniseg v0.2.0 // indirect
	github.com/sergi/go-diff v1.1.0 // indirect
	github.com/spf13/pflag v1.0.5 // indirect
	github.com/xanzy/ssh-agent v0.3.0 // indirect
	golang.org/x/crypto v0.0.0-20210421170649-83a5a9bb288b // indirect
	golang.org/x/net v0.0.0-20210326060303-6b1517762897 // indirect
	golang.org/x/sys v0.0.0-20220520151302-bc2c85ada10a // indirect
	gopkg.in/warnings.v0 v0.1.2 // indirect
)
